{
    "ricompensa": {
        "tipo": "downgrade",
        "img": "pixel_egg.png",
        "num": "10",
        "bonus": "0",
        "malus": "-1"
    },
    "background_nozione": "nozione_dino.png",
    "color_nozione": "black",
    "missioni": [
        {
            "tipo": "click_on_obj",
            "obj": "farfalla.png",
            "interazione": "Clicca sulla farfalla per seguirla",
            "position": {
                "left": "50vw",
                "top": "50vh",
                "width": "20vw",
                "height": "auto"
            },
            "background": "cave_dino.png",
            "storia": "E' una calda domenica d'agosto, ti trovi in montagna con i tuoi genitori. Nel corso di una lunga camminata all'aria aperta vedi una bellissima farfalla colorata posarsi su un fiore davanti a te. Non fai in tempo ad avvicinarti che vola verso una grotta buia. Decidi di seguirla!."
        },
        {
            "tipo": "only_history",
            "background": "valley_dino.png",
            "storia": "Con uno spirito coraggioso decidi di avventurarti nella grotta. All'interno di questa buia e profonda grotta scorgi una luce, ti avvicini e ti ritrovi di fronte ad una vallata gigantesca. Capisci subito che c'è qualcosa di magico, questa valle, infatti, è abitata dai dinosauri! Non fai neanche in tempo a realizzare cosa stia succedendo che ti senti chiamare. E' un cucciolo di Brontosauro! ",
            "popup": {
                "img": "piedino_head.png",
                "text": "Ciao! Non ti ho mai visto da queste parti, come ti chiami? Io sono Bronty, benvenuto nella Vallata Magica! La casa di tutti i dinosauri. Sono disperato! Un farabutto mi ha rubato le uova! Non sono riuscito a vederlo, aiutami a trovarlo."
            },
            "nozione": {
                "img": "brontosauoro_nozione.jpg",
                "text": [
                    "Nome: Brontosauro",
                    "Significato: Lucertola del tuono",
                    "Peso: Fino a 22 tonnellate",
                    "Altezza: 8 metri",
                    "Il Brontosauro era un animale erbivoro di grandi dimensioni, dotato di un lungo collo e una lunga coda."
                ]
            }
        },
        {
            "tipo": "closed_quest",
            "quest": {
                "domanda": "Qual è la specialità di questo dinosauro? ",
                "opzioni": [
                    "Forza",
                    "Velocità"
                ],
                "corretta": "Forza"
            },
            "background": "dino5_trice.png",
            "storia": "Decidi di aiutare il Brontosauro nella sua ricerca. Partite insieme per questo viaggio. Non passa molto e vi imbattete subito in un Triceratopo con due corna lunghissime. Decidete di chiedere a lui se, per caso, avesse visto qualcuno scappare con delle uova.",
            "popup": {
                "img": "trice_head.png",
                "text": "Delle uova stai dicendo? Mi dispiace amici non ho visto nessuno da queste parti."
            },
            "nozione": {
                "img": "triceratopo_nozione.jpg",
                "text": [
                    "Nome: Triceratopo",
                    "Significato: Faccia con tre corna",
                    "Peso: Fino a 12 tonnellate",
                    "Altezza: 3 metri",
                    "Il Triceratopo era un animale erbivoro di medie dimensioni. La sua caratteristica principale era il grande cranio con tre corna, unito a una grande forza."
                ]
            }
        },
        {
            "tipo": "closed_quest",
            "quest": {
                "domanda": "Quale di questi tre è il mio cibo preferito?",
                "opzioni": [
                    "Conchiglia",
                    "Pesce",
                    "Riccio di mare"
                ],
                "corretta": "Pesce"
            },
            "background": "ptero_back.png",
            "storia": "Salutato il Triceratopo, proseguite la ricerca imbattendovi questa volta in un cucciolo di Pterosauro che sta giocando con un piccolo pezzo di guscio. Gli raccontate la vostra storia, sperando vi possa aiutare.",
            "popup": {
                "img": "ptero_head.png",
                "text": "Si, ho notato una figura muoversi frettolosamente con delle uova! Non sembrava avere un'aria amichevole. Se mi aiuterai ti darò un indizio. Sono affamato!"
            },
            "nozione": {
                "img": "ptero_nozione.jpg",
                "text": [
                    "Nome: Pterosauro",
                    "Significato: Lucertola alata",
                    "Peso: Fino a 250 chilogrammi",
                    "Altezza: A partire da 20 centimetri",
                    "Lo Pterosauro era un predatore volante onnivoro che si cibava soprattutto di pesci e piccoli invertebrati marini. Disponeva di un'apertura alare molto grande, fino a 9 metri."
                ]
            }
        },
        {
            "tipo": "only_history",
            "background": "ptero_back.png",
            "storia": "Lo Pterosauro mangia il gustosissimo pesce. ",
            "popup": {
                "img": "ptero_head.png",
                "text": "Grazie! L'indizio è: CAMMINAVA SU DUE ZAMPE!"
            }
        },
        {
            "tipo": "closed_quest",
            "quest": {
                "domanda": "Quale percorso vuoi seguire?",
                "opzioni": [
                    "Sinistra",
                    "Destra"
                ],
                "corretta": "Destra"
            },
            "background": "orme_back.png",
            "storia": "Preso il sentiero di destra, vi ritrovate vicino ad un fiumiciattolo, dove trovate uno Stegosauro che sta bevendo! È il dinosauro più saggio della vallata, lui sicuro ci dirà qualcosa di utile!",
            "popup": {
                "img": "stego_head.png",
                "text": "In  questa vallata sono solo 3 i dinosauri che camminano su 2 zampe: il T-Rex, il Velociraptor e l'Oviraptor!"
            },
            "nozione": {
                "img": "stegosauro_nozione.jpg",
                "text": [
                    "Nome: Stegosauro",
                    "Significato: Lucertola coperta",
                    "Peso: Fino a 2.6 tonnellate",
                    "Altezza: Fino a 3.5 metri",
                    "Lo Stegosauro era un dinosauro quadrupede erbivoro di grandi dimensioni e robusto. Aveva un collo corto e una testa piccola attraverso cui si nutriva della bassa vegetazione."
                ]
            }
        },
        {
            "tipo": "closed_quest",
            "quest": {
                "domanda": "Cosa fare?",
                "opzioni": [
                    "Scappa",
                    "Nasconditi"
                ],
                "corretta": "Nasconditi"
            },
            "background": "trex_back.png",
            "storia": "Salutato il saggio Stegosauro vi inoltrate nella vallata. Ad un tratto venite assordati da un forte ruggito. È l'enorme T-Rex della vallata che avendo sentito il vostro odore sta arrivando!",
            "nozione": {
                "img": "trex_nozione.jpg",
                "text": [
                    "Nome: Tirannosauro",
                    "Significato: Re lucertola tiranna",
                    "Peso: Fino a 14 tonnellate",
                    "Altezza: Fino a 6 metri",
                    "Il Tirannosauro era uno dei predatori più grandi e forti conosciuti. Era un carnivoro bipede e possedeva 2 arti anteriori molto corti ciascuno con 2 dita artigliate. "
                ]
            }
        },
        {
            "tipo": "open_quest",
            "quest": {
                "domanda": "Il Velociraptor percorre 15 metri ogni secondo. Moltiplicalo per 6 due volte, poi dividi il risultato per 10 per scoprire a quanti chilometri orari corrisponde.",
                "risposta": [
                    "54"
                ]
            },
            "background": "velo_back.png",
            "storia": "Scampato il pericolo T-Rex, assieme a Bronty decidete di andare nelle praterie delle vallate, la tana dei Velociraptor! Da nascosti dietro a un cespuglio il Brontosauro ti descrive questa specie. Vorreste riuscire a fermarlo per potergli chiedere informazioni sull'accaduto.",
            "popup": {
                "img": "piedino_head.png",
                "text": "Il Velociraptor è il più veloce dei dinosauri!"
            },
            "nozione": {
                "img": "velociraptor_nozione.jpg",
                "text": [
                    "Nome: Velociraptor",
                    "Significato: Ladro veloce",
                    "Peso: Fino a 15 chilogrammi",
                    "Altezza: Fino a 2 metri",
                    "Il Velociraptor era un dinosauro bipede di taglia media noto per essere un cacciatore carnivoro molto veloce. Non mangiava uova."
                ]
            }
        },
        {
            "tipo": "only_history",
            "background": "velo_back.png",
            "storia": "54 chilometri orari sono troppi per un umano! Meglio non provarci neanche."
        },
        {
            "tipo": "open_quest",
            "quest": {
                "domanda": "Prendi il primo libro che trovi in casa, aprilo alla pagina corrispondente al giorno del tuo compleanno e inizia a leggerla. In relazione alla prima lettera che trovi inserisci la risposta corretta: n=nord, s=sud, o=ovest, e=est",
                "risposta": [
                    "Nord",
                    "Sud",
                    "Ovest",
                    "Est",
                    "nord",
                    "sud",
                    "ovest",
                    "est"
                ]
            },
            "background": "ovo_back.png",
            "storia": "Proseguendo, oramai sconsolati, raggiungete un Oviraptor dall'aria molto simpatica.",
            "popup": {
                "img": "oviraptor_head.png",
                "text": "Conosco il colpevole! Ma in cambio devi indicarmi la direzione per raggiungere il T-Rex."
            },
            "nozione": {
                "img": "oviraptor_nozione.jpg",
                "text": [
                    "Nome: Oviraptor",
                    "Peso: 35 chilogrammi",
                    "Altezza: Fino a 2 metri",
                    "L'Oviraptor era un dinosauro bipede dal corpo snello e il collo allungato. Disponeva di un becco privo di denti e una cresta sul capo."
                ]
            }
        },
        {
            "tipo": "open_quest",
            "quest": {
                "domanda": "Quante zampe ci sono in totale?",
                "risposta": [
                    "20"
                ]
            },
            "background": "ovo_back.png",
            "storia": "L'Oviraptor ti risponde che è stato l'Anchilosauro. Si trova sulla cima più alta della vallata all'interno di una grotta. Per poterci parlare è necessaria una foglia di felce che l'Oviraptor possiede e ti darà solo se risolverai l'indovinello.",
            "popup": {
                "img": "oviraptor_head.png",
                "text": "Se siamo 4 Oviraptor e 3 Stegosauri, quante zampe ci sono in totale?"
            }
        },
        {
            "tipo": "closed_quest",
            "quest": {
                "domanda": "I dinosauri sono gli antenati di:",
                "opzioni": [
                    "Mammiferi",
                    "Rettili"
                ],
                "corretta": "Rettili"
            },
            "background": "mountainWithCave.png",
            "storia": "Ricevuta la foglia di felce dall'Oviraptor, si raggiunge la grotta sul monte più alto. Qui si incontra l'Anchilosauro che ti racconta di quando hanno provato a rubarle anche a lui ma senza successo!",
            "popup": {
                "img": "anchilo_head.png",
                "text": "Ha provato a rubarle anche a me quel maledetto! Sono riuscito a vederlo di sfuggita, ma ricordo avesse una cresta!"
            },
            "nozione": {
                "img": "anchilo_nozione.png",
                "text": [
                    "Nome: Anchilosauro",
                    "Significato: Lucertola corazzata",
                    "Peso: Fino a 6 tonnellate",
                    "Altezza: Fino a 2 metri",
                    "L'Anchilosauro era un dinosauro erbivoro. Possedeva corazze dotate di placche ossee. La coda era munita di una clava ossea che poteva essere brandita con grande forza."
                ]
            }
        },
        {
            "tipo": "closed_quest",
            "quest": {
                "domanda": "Qualcuno ha mentito! Ricapitoliamo insieme: ha la cresta, dispone di due zampe ed è carnivoro. Chi è stato a rubare le uova?",
                "opzioni": [
                    "T-rex",
                    "Velociraptor",
                    "Oviraptor"
                ],
                "corretta": "Oviraptor"
            },
            "background": "piedino_riflessioni.png",
            "storia": "Ti ritrovi a riflettere insieme Bronty. "
        },
        {
            "tipo": "click_on_obj",
            "obj": "uovo.png",
            "interazione": "Clicca sull'uovo per poterle recuperare!",
            "position": {
                "left": "59vw",
                "top": "53vh",
                "width": "7vw",
                "height": "auto"
            },
            "background": "finale_dino.png",
            "storia": "Vi recate subito nella tana dall'Oviraptor sorprendendolo con le uova. Clicca sulle uova per poterle recuperare! ",
            "popup": {
                "img": "piedino_head.png",
                "text": "Prendiamolo!"
            }
        },
        {
            "tipo": "end",
            "storia": "Riponi nel nido le uova. Sei riuscito a salvare: ",
            "background": "babyBronto.jpg"
        }
    ]
}